{
	"teachers": [
		{
			"nombre": "Freddy Vega",
			"twitter": "freddier"
		},
		{
			"nombre": "Sacha Lifszyc",
			"twitter": "sachalifs"
		},
		{
			"nombre": "Julian duque",
			"twitter": "julia_duque"
		},
		{
			"nombre": "Leonidas Esteban",
			"twitter": "LeonidasEsteban"
		}
	]
}